{
  "persona": {
    "demography": {
      "age": {
        "headline": "About you",
        "parameter": "user.persona.demography.age",
        "name": "Age",
        "dataType": "integer",
        "active": false
      }
    },
    "body": {
      "weigth": {
        "headline": "About you",
        "parameter": "user.persona.body.weight",
        "name": "Weight (kg)",
        "dataType": "integer",
        "active": true
      },
      "height": {
        "parameter": "user.persona.body.height",
        "name": "Height (cm)",
        "dataType": "integer",
        "active": true
      }
    },
    "vehicleSettings": {
      "sideMirrors": {
        "left": {
          "x-axis": {
            "pagerGroup": "Left mirrors",
            "joystick": true,
            "headline": "Car mirrors",
            "parameter": "user.persona.vehicleSettings.sideMirrors.left.x",
            "name": "Sidemirror left, x-axis",
            "dataType": "double",
            "range": {
              "min": -2.5,
              "max": 2.5,
              "increment": 0.1,
              "start": 0
            },
            "active": true
          },
          "y-axis": {
            "pagerGroup": "Left mirrors",
            "joystick": true,
            "headline": "Car mirrors",
            "parameter": "user.persona.vehicleSettings.sideMirrors.left.y",
            "name": "Sidemirror left, y-axis",
            "dataType": "double",
            "range": {
              "min": -2.5,
              "max": 2.5,
              "increment": 0.1,
              "start": 0
            },
            "active": true
          }
        },
        "right": {
          "x-axis": {
            "pagerGroup": "Right mirrors",
            "joystick": true,
            "headline": "Car mirrors",
            "parameter": "user.persona.vehicleSettings.sideMirrors.right.x",
            "name": "Sidemirror right, x-axis",
            "dataType": "double",
            "range": {
              "min": -2.5,
              "max": 2.5,
              "increment": 0.1,
              "start": 0
            },
            "active": true
          },
          "y-axis": {
            "pagerGroup": "Right mirrors",
            "joystick": true,
            "headline": "Car mirrors",
            "parameter": "user.persona.vehicleSettings.sideMirrors.right.y",
            "name": "Sidemirror right, y-axis",
            "dataType": "double",
            "range": {
              "min": -2.5,
              "max": 2.5,
              "increment": 0.1,
              "start": 0
            },
            "active": true
          }
        }
      },
      "infotainmentComfort": {
        "temperatureControl": {
          "seat": {
            "headline": "Seat Heater",
            "parameter": "user.persona.vehicleSettings.infotainmentComfort.temparaturControl.seat",
            "name": "Seat heater",
            "dataType": "integer",
            "range": {
              "min": 0,
              "max": 3,
              "increment": 1
            },
            "active": true
          }
        }
      },
      "feedbackSettings": {
        "status": {
          "headline": "Feedback HAF Events",
          "parameter": "user.persona.vehicleSettings.feedbackSettings.status",
          "name": "Feedback",
          "dataType": "boolean",
          "active": true
        },
        "interval": {
          "headline": "Feedback HAF Events",
          "parameter": "user.persona.vehicleSettings.feedbackSettings.interval",
          "name": "Interval",
          "dataType": "integer",
          "range": {
            "min": 1,
            "max": 3,
            "increment": 1
          }
        }
      },
	"seat":{
		"position-longitudinal":{
			"headline": "POSITION",
			"parameter": "user.persona.vehicleSettings.seat.position-longitudinal",
			"name": "Longitudinal",
			"dataType": "boolean",
			"active": true,
			"screen": "Seat"
		},
		"position-height":{
			"headline": "POSITION",
			"parameter": "user.persona.vehicleSettings.seat.position-height",
			"name": "Height",
			"dataType": "boolean",
			"active": true,
			"screen": "Seat"

		},
		"position-angle":{
			"headline": "POSITION",
			"parameter": "user.persona.vehicleSettings.seat.position-angle",
			"name": "Angle",
			"dataType": "boolean",
			"active": true,
			"screen": "Seat"

		},
		"position-value": {
			"headline": "POSITION",
			"parameter": "user.persona.vehicleSettings.seat.position-value",
			"name": "value",
			"displayLabel": false,
			"dataType": "integer",
			"range":{
				"min": 0,
				"max": 6,
				"increment": 1,
				"start": 3
			},
			"active": true,
			"screen": "Seat"

		}
	},
"entertainment":{
		"SW-Level":{
			"parameter": "user.persona.vehicleSettings.entertainment.SW-Level",
			"name": "SW Level in dB",
			"dataType": "double",
"range":{
	"min": 0,
	"max": 10,
	"increment": 1,
	"start": 0
},
			"active": true,
			"screen": "Entertainment"
		}
	}

    }
  },
  "subprofile": {
    "needs": {
      "HAD": {
        "LaneChange": {
          "DynLat": {
            "headline": "Lane Change",
            "parameter": "user.subprofile.needs.HAD.LaneChange.DynLat",
            "name": "LaneChange, Dyn lat",
            "dataType": "integer",
            "range": {
              "min": 0,
              "max": 5,
              "increment": 1,
              "start": 1
            },
            "active": true
          },
          "DynLong": {
            "headline": "Lane Change",
            "parameter": "user.subprofile.needs.HAD.LaneChange.DynLong",
            "name": "LaneChange, Dyn long",
            "dataType": "integer",
            "range": {
              "min": 0,
              "max": 5,
              "increment": 1,
              "start": 1
            },
            "active": true
          }
        }
      }
    },
    "vehiclesettings": {
      "HAD": {
        "LaneChange": {
          "LongAccelMin": {
            "headline": "Lane Change",
            "parameter": "user.subprofile.vehiclesettings.HAD.LaneChange.LongAccelMax",
            "name": "LaneChange, LongAccelMax",
            "dataType": "double",
            "range": {
              "min": 0,
              "max": 10,
              "increment": 0.1,
              "start": 3
            },
            "active": true
          },
          "LatAccelMax": {
            "headline": "Lane Change",
            "parameter": "user.subprofile.vehiclesettings.HAD.LaneChange.LatAccelMax",
            "name": "LaneChange, LatAccelMax",
            "dataType": "double",
            "range": {
              "min": 0,
              "max": 10,
              "increment": 0.1,
              "start": 3
            },
            "active": true
          },
          "time": {
            "headline": "Lane Change",
            "parameter": "user.subprofile.vehiclesettings.HAD.LaneChange.time",
            "name": "LaneChange, time",
            "dataType": "double",
            "range": {
              "min": 0,
              "max": 10,
              "increment": 0.1,
              "start": 3
            },
            "active": true
          }
        }
      }
    }
  }
}